{
  "Version": "2012-10-17",
  "Statement": [{
    "Sid": "SafeReadOnlyAccessPolicy",
    "Effect": "Allow",
    "Resource": [
      "*"
    ],
    "Action": [
      "acm:Describe*",
      "acm:List*",
      "apigateway:GET",
      "application-autoscaling:Describe*",
      "appstream:Get*",
      "autoscaling:CreateOrUpdateTags",
      "autoscaling:DeleteTags",
      "autoscaling:Describe*",
      "autoscaling:DisableMetricsCollection",
      "autoscaling:EnableMetricsCollection",
      "batch:Describe*",
      "batch:List*",
      "cloudformation:Describe*",
      "cloudformation:EstimateTemplateCost",
      "cloudformation:Get*",
      "cloudformation:List*",
      "cloudformation:PreviewStackUpdate",
      "cloudfront:Get*",
      "cloudfront:List*",
      "cloudsearch:Describe*",
      "cloudwatch:Describe*",
      "cloudwatch:Get*",
      "cloudwatch:List*",
      "codebuild:BatchGet*",
      "codebuild:List*",
      "codecommit:Get*",
      "codecommit:List*",
      "codedeploy:Get*",
      "codedeploy:List*",
      "codepipeline:Get*",
      "codepipeline:List*",
      "datapipeline:Describe*",
      "datapipeline:Get*",
      "datapipeline:List*",
      "devicefarm:Get*",
      "devicefarm:List*",
      "discovery:Describe*",
      "discovery:List*",
      "dms:Describe*",
      "dms:List*",
      "dynamodb:Describe*",
      "dynamodb:List*",
      "ec2:Describe*",
      "ec2:Get*",
      "ecr:Describe*",
      "ecr:Get*",
      "ecr:List*",
      "ecs:Describe*",
      "ecs:List*",
      "elasticache:Describe*",
      "elasticache:List*",
      "elasticbeanstalk:CheckDNSAvailability",
      "elasticbeanstalk:Describe*",
      "elasticbeanstalk:List*",
      "elasticbeanstalk:RequestEnvironmentInfo",
      "elasticbeanstalk:RetrieveEnvironmentInfo",
      "elasticbeanstalk:ValidateConfigurationSettings",
      "elasticfilesystem:Describe*",
      "elasticloadbalancing:AddTags",
      "elasticloadbalancing:Describe*",
      "elasticloadbalancing:RemoveTags",
      "elasticmapreduce:Describe*",
      "elasticmapreduce:List*",
      "elastictranscoder:List*",
      "es:Describe*",
      "es:List*",
      "events:Describe*",
      "events:List*",
      "execute-api:Invoke",
      "execute-api:InvalidateCache",
      "firehose:Describe*",
      "firehose:List*",
      "glacier:Describe*",
      "glacier:List*",
      "health:Describe*",
      "iam:GenerateServiceLastAccessedDetails",
      "iam:GetAccountSummary",
      "iam:GetPolicy",
      "iam:GetPolicyVersion",
      "iam:GetRole",
      "iam:GetRolePolicy",
      "iam:GetServiceLastAccessedDetails",
      "iam:GetUser",
      "iam:GetUserPolicy",
      "iam:ListAccountAliases",
      "iam:ListAttachedGroupPolicies",
      "iam:ListAttachedRolePolicies",
      "iam:ListEntitiesForPolicy",
      "iam:ListGroups",
      "iam:ListInstanceProfiles",
      "iam:ListInstanceProfilesForRole",
      "iam:ListPolicies",
      "iam:ListPolicyVersions",
      "iam:ListRolePolicies",
      "iam:ListRoles",
      "iam:ListSAMLProviders",
      "iam:ListServerCertificates",
      "iam:ListSigningCertificates",
      "iam:ListUserPolicies",
      "iam:ListUsers",
      "importexport:Get*",
      "importexport:List*",
      "inspector:Describe*",
      "inspector:List*",
      "iot:Describe*",
      "iot:Get*",
      "iot:List*",
      "kinesis:Describe*",
      "kinesis:List*",
      "kinesisanalytics:Describe*",
      "kinesisanalytics:List*",
      "kms:Describe*",
      "kms:Get*",
      "kms:List*",
      "lambda:Get*",
      "lambda:List*",
      "lightsail:Get*",
      "logs:Describe*",
      "logs:Filter*",
      "logs:Get*",
      "machinelearning:Describe*",
      "machinelearning:Get*",
      "mobileanalytics:Get*",
      "mobilehub:Get*",
      "mobilehub:List*",
      "opsworks:Describe*",
      "organizations:DescribeOrganization",
      "polly:Describe*",
      "polly:Get*",
      "polly:List*",
      "rds:Describe*",
      "rds:List*",
      "redshift:Describe*",
      "rekognition:List*",
      "route53:Get*",
      "route53:List*",
      "route53domains:Get*",
      "route53domains:List*",
      "s3:GetBucket*",
      "s3:List*",
      "servicecatalog:Describe*",
      "servicecatalog:List*",
      "ses:Describe*",
      "ses:Get*",
      "ses:List*",
      "shield:Describe*",
      "shield:List*",
      "sms:Get*",
      "snowball:Describe*",
      "snowball:Get*",
      "snowball:List*",
      "sns:Get*",
      "sns:List*",
      "sqs:Get*",
      "sqs:List*",
      "ssm:Describe*",
      "ssm:List*",
      "states:Describe*",
      "states:Get*",
      "states:List*",
      "swf:Describe*",
      "swf:Get*",
      "swf:List*",
      "waf:Get*",
      "waf:List*",
      "waf-regional:Get*",
      "waf-regional:List*",
      "xray:Get*"
    ]
  }]
}
